<svg width="15" height="16" viewBox="0 0 15 16" fill="none" xmlns="http://www.w3.org/2000/svg">
<g id="IONIcon/H/home/default" clip-path="url(#clip0_1_113)">
<path id="Vector" d="M7.66277 3.4676C7.61915 3.42588 7.56112 3.40259 7.50075 3.40259C7.44039 3.40259 7.38236 3.42588 7.33874 3.4676L1.94519 8.62004C1.92228 8.64195 1.90406 8.66828 1.89162 8.69744C1.87919 8.72659 1.87279 8.75797 1.87283 8.78967L1.87195 13.6254C1.87195 13.874 1.97072 14.1125 2.14654 14.2883C2.32235 14.4641 2.56081 14.5629 2.80945 14.5629H5.62488C5.7492 14.5629 5.86842 14.5135 5.95633 14.4256C6.04424 14.3377 6.09363 14.2185 6.09363 14.0942V10.1098C6.09363 10.0476 6.11832 9.98801 6.16227 9.94406C6.20623 9.9001 6.26584 9.87541 6.328 9.87541H8.67175C8.73391 9.87541 8.79352 9.9001 8.83748 9.94406C8.88143 9.98801 8.90613 10.0476 8.90613 10.1098V14.0942C8.90613 14.2185 8.95551 14.3377 9.04342 14.4256C9.13133 14.5135 9.25056 14.5629 9.37488 14.5629H12.1891C12.4378 14.5629 12.6762 14.4641 12.852 14.2883C13.0279 14.1125 13.1266 13.874 13.1266 13.6254V8.78967C13.1267 8.75797 13.1203 8.72659 13.1078 8.69744C13.0954 8.66828 13.0772 8.64195 13.0543 8.62004L7.66277 3.4676Z" fill="white"/>
<path id="Vector_2" d="M14.3824 7.65375L12.191 5.55726V2.37592C12.191 2.2516 12.1416 2.13237 12.0537 2.04446C11.9658 1.95655 11.8465 1.90717 11.7222 1.90717H10.316C10.1917 1.90717 10.0724 1.95655 9.98452 2.04446C9.89661 2.13237 9.84722 2.2516 9.84722 2.37592V3.31342L8.15035 1.69095C7.99156 1.53041 7.75543 1.43842 7.50025 1.43842C7.24596 1.43842 7.01041 1.53041 6.85162 1.69125L0.620177 7.65316C0.437951 7.82894 0.415099 8.1181 0.580919 8.30853C0.622559 8.3566 0.673545 8.39569 0.730772 8.42343C0.788 8.45116 0.850273 8.46697 0.913802 8.46987C0.977331 8.47278 1.04079 8.46272 1.10031 8.44033C1.15983 8.41793 1.21417 8.38365 1.26002 8.33959L7.33912 2.5306C7.38274 2.48888 7.44077 2.46559 7.50113 2.46559C7.56149 2.46559 7.61953 2.48888 7.66314 2.5306L13.7428 8.33959C13.8324 8.42547 13.9523 8.47234 14.0764 8.46992C14.2005 8.46751 14.3185 8.416 14.4046 8.3267C14.5845 8.14037 14.5696 7.83275 14.3824 7.65375Z" fill="white"/>
</g>
<defs>
<clipPath id="clip0_1_113">
<rect width="15" height="15" fill="white" transform="translate(-0.00012207 0.500061)"/>
</clipPath>
</defs>
</svg>
